%YAML 1.1
%TAG !u! tag:unity3d.com,2011:
--- !u!687078895 &4343727234628468602
SpriteAtlas:
  m_ObjectHideFlags: 0
  m_CorrespondingSourceObject: {fileID: 0}
  m_PrefabInstance: {fileID: 0}
  m_PrefabAsset: {fileID: 0}
  m_Name: GameUI
  m_EditorData:
    serializedVersion: 2
    textureSettings:
      serializedVersion: 2
      anisoLevel: 1
      compressionQuality: 50
      maxTextureSize: 2048
      textureCompression: 0
      filterMode: 1
      generateMipMaps: 0
      readable: 0
      crunchedCompression: 0
      sRGB: 1
    platformSettings: []
    packingSettings:
      serializedVersion: 2
      padding: 4
      blockOffset: 1
      allowAlphaSplitting: 0
      enableRotation: 0
      enableTightPacking: 0
    variantMultiplier: 1
    packables:
    - {fileID: 2800000, guid: c9d7580f9f10d1448935690e492d9d5d, type: 3}
    - {fileID: 2800000, guid: 96c3fadf790a73745bf5c6900cd61b29, type: 3}
    - {fileID: 2800000, guid: 30a0827b93ffa07479aaf343958c2ea0, type: 3}
    - {fileID: 2800000, guid: dae27b2df18d7214aa48b41e2df9c616, type: 3}
    - {fileID: 2800000, guid: 8acabf908da1c5e4ea7ea0142dd72bdb, type: 3}
    - {fileID: 2800000, guid: 3ee3f86176f796a41b31e41e0092a0a1, type: 3}
    - {fileID: 2800000, guid: 47adaf63d38731c46a7a34ba9d8ec232, type: 3}
    - {fileID: 2800000, guid: 3fd4311a94062f74fa2e47c42d14aa85, type: 3}
    - {fileID: 2800000, guid: 8b53266e33288c04f8fbc46cf3268f23, type: 3}
    - {fileID: 2800000, guid: 7e84a0884ab9a9747a521e0a5d9340a1, type: 3}
    - {fileID: 2800000, guid: 4aaf967c75d23654cb9729d81429836d, type: 3}
    - {fileID: 2800000, guid: 12d0d2a9b43e23b4ebf931bb3defef31, type: 3}
    - {fileID: 2800000, guid: c74ebbda1bbdc99498af41460b3da084, type: 3}
    totalSpriteSurfaceArea: 2024769
    bindAsDefault: 1
  m_MasterAtlas: {fileID: 0}
  m_PackedSprites:
  - {fileID: 21300000, guid: 8acabf908da1c5e4ea7ea0142dd72bdb, type: 3}
  - {fileID: 21300000, guid: 3ee3f86176f796a41b31e41e0092a0a1, type: 3}
  - {fileID: 21300000, guid: 47adaf63d38731c46a7a34ba9d8ec232, type: 3}
  - {fileID: 21300000, guid: 7e84a0884ab9a9747a521e0a5d9340a1, type: 3}
  - {fileID: 21300000, guid: 12d0d2a9b43e23b4ebf931bb3defef31, type: 3}
  - {fileID: 21300000, guid: 3fd4311a94062f74fa2e47c42d14aa85, type: 3}
  - {fileID: 21300000, guid: c74ebbda1bbdc99498af41460b3da084, type: 3}
  - {fileID: 21300000, guid: 30a0827b93ffa07479aaf343958c2ea0, type: 3}
  - {fileID: 21300000, guid: 4aaf967c75d23654cb9729d81429836d, type: 3}
  - {fileID: 21300000, guid: dae27b2df18d7214aa48b41e2df9c616, type: 3}
  - {fileID: 21300000, guid: 8b53266e33288c04f8fbc46cf3268f23, type: 3}
  - {fileID: 21300000, guid: c9d7580f9f10d1448935690e492d9d5d, type: 3}
  - {fileID: 21300000, guid: 96c3fadf790a73745bf5c6900cd61b29, type: 3}
  m_PackedSpriteNamesToIndex:
  - chip_003
  - chip_004
  - chip_005
  - pixel
  - win_text_none
  - chips_bg
  - win_text_win_capital
  - chip_001
  - table_grid_default
  - chip_002
  - CircleBigMiddleSize_Fill
  - 0Sprite
  - btn_controls_icon_spin
  m_Tag: GameUI
  m_IsVariant: 0
